{
  "project_info": {
    "project_number": "421535327263",
    "firebase_url": "https://iserveumainapp.firebaseio.com",
    "project_id": "iserveumainapp",
    "storage_bucket": "iserveumainapp.appspot.com"
  },
  "client": [
    {
      "client_info": {
        "mobilesdk_app_id": "1:421535327263:android:5112445a39929bef",
        "android_client_info": {
          "package_name": "com.cyrusbion.aeps"
        }
      },
      "oauth_client": [
        {
          "client_id": "421535327263-e90vlvr0d8qcm6l8v6tmtlaf3eq1ors1.apps.googleusercontent.com",
          "client_type": 1,
          "android_info": {
            "package_name": "com.cyrusbion.aeps",
            "certificate_hash": "b05fcd111ae43da193b55f4d3075fb7d8a37fe9e"
          }
        },
        {
          "client_id": "421535327263-c69n08rn83cgjg9lbbd93c0vmmbfl4rd.apps.googleusercontent.com",
          "client_type": 3
        }
      ],
      "api_key": [
        {
          "current_key": "AIzaSyAOFYyCsZ14XwV56GnfKoss8nexcBTgjsU"
        }
      ],
      "services": {
        "analytics_service": {
          "status": 1
        },
        "appinvite_service": {
          "status": 2,
          "other_platform_oauth_client": [
            {
              "client_id": "421535327263-c69n08rn83cgjg9lbbd93c0vmmbfl4rd.apps.googleusercontent.com",
              "client_type": 3
            }
          ]
        },
        "ads_service": {
          "status": 2
        }
      }
    },
    {
      "client_info": {
        "mobilesdk_app_id": "1:421535327263:android:3acddb23705794f0",
        "android_client_info": {
          "package_name": "com.ionicframework.ionicdemo144715"
        }
      },
      "oauth_client": [
        {
          "client_id": "421535327263-c69n08rn83cgjg9lbbd93c0vmmbfl4rd.apps.googleusercontent.com",
          "client_type": 3
        }
      ],
      "api_key": [
        {
          "current_key": "AIzaSyAOFYyCsZ14XwV56GnfKoss8nexcBTgjsU"
        }
      ],
      "services": {
        "analytics_service": {
          "status": 1
        },
        "appinvite_service": {
          "status": 1,
          "other_platform_oauth_client": []
        },
        "ads_service": {
          "status": 2
        }
      }
    },
    {
      "client_info": {
        "mobilesdk_app_id": "1:421535327263:android:b00ed152e679aec7",
        "android_client_info": {
          "package_name": "com.iserveu.aapkaatm"
        }
      },
      "oauth_client": [
        {
          "client_id": "421535327263-c69n08rn83cgjg9lbbd93c0vmmbfl4rd.apps.googleusercontent.com",
          "client_type": 3
        }
      ],
      "api_key": [
        {
          "current_key": "AIzaSyAOFYyCsZ14XwV56GnfKoss8nexcBTgjsU"
        }
      ],
      "services": {
        "analytics_service": {
          "status": 1
        },
        "appinvite_service": {
          "status": 1,
          "other_platform_oauth_client": []
        },
        "ads_service": {
          "status": 2
        }
      }
    },
    {
      "client_info": {
        "mobilesdk_app_id": "1:421535327263:android:f007f4ae59301a37",
        "android_client_info": {
          "package_name": "com.iserveu.aeps"
        }
      },
      "oauth_client": [
        {
          "client_id": "421535327263-qaqq13tkl91rt1knb5e9nek9otig89q8.apps.googleusercontent.com",
          "client_type": 1,
          "android_info": {
            "package_name": "com.iserveu.aeps",
            "certificate_hash": "b05fcd111ae43da193b55f4d3075fb7d8a37fe9e"
          }
        },
        {
          "client_id": "421535327263-c69n08rn83cgjg9lbbd93c0vmmbfl4rd.apps.googleusercontent.com",
          "client_type": 3
        }
      ],
      "api_key": [
        {
          "current_key": "AIzaSyAOFYyCsZ14XwV56GnfKoss8nexcBTgjsU"
        }
      ],
      "services": {
        "analytics_service": {
          "status": 1
        },
        "appinvite_service": {
          "status": 2,
          "other_platform_oauth_client": [
            {
              "client_id": "421535327263-c69n08rn83cgjg9lbbd93c0vmmbfl4rd.apps.googleusercontent.com",
              "client_type": 3
            }
          ]
        },
        "ads_service": {
          "status": 2
        }
      }
    },
    {
      "client_info": {
        "mobilesdk_app_id": "1:421535327263:android:543dfa043dc2a310",
        "android_client_info": {
          "package_name": "com.iserveu.aepsStagging"
        }
      },
      "oauth_client": [
        {
          "client_id": "421535327263-4je6abev2qaq5ch53jmfcnobmor1jukf.apps.googleusercontent.com",
          "client_type": 1,
          "android_info": {
            "package_name": "com.iserveu.aepsStagging",
            "certificate_hash": "b05fcd111ae43da193b55f4d3075fb7d8a37fe9e"
          }
        },
        {
          "client_id": "421535327263-c69n08rn83cgjg9lbbd93c0vmmbfl4rd.apps.googleusercontent.com",
          "client_type": 3
        }
      ],
      "api_key": [
        {
          "current_key": "AIzaSyAOFYyCsZ14XwV56GnfKoss8nexcBTgjsU"
        }
      ],
      "services": {
        "analytics_service": {
          "status": 1
        },
        "appinvite_service": {
          "status": 2,
          "other_platform_oauth_client": [
            {
              "client_id": "421535327263-c69n08rn83cgjg9lbbd93c0vmmbfl4rd.apps.googleusercontent.com",
              "client_type": 3
            }
          ]
        },
        "ads_service": {
          "status": 2
        }
      }
    },
    {
      "client_info": {
        "mobilesdk_app_id": "1:421535327263:android:7c7e213585ced9f5",
        "android_client_info": {
          "package_name": "com.iserveu.bisani"
        }
      },
      "oauth_client": [
        {
          "client_id": "421535327263-m7qnku6hcpddem24oen3dt0e67d6hs51.apps.googleusercontent.com",
          "client_type": 1,
          "android_info": {
            "package_name": "com.iserveu.bisani",
            "certificate_hash": "b05fcd111ae43da193b55f4d3075fb7d8a37fe9e"
          }
        },
        {
          "client_id": "421535327263-c69n08rn83cgjg9lbbd93c0vmmbfl4rd.apps.googleusercontent.com",
          "client_type": 3
        }
      ],
      "api_key": [
        {
          "current_key": "AIzaSyAOFYyCsZ14XwV56GnfKoss8nexcBTgjsU"
        }
      ],
      "services": {
        "analytics_service": {
          "status": 1
        },
        "appinvite_service": {
          "status": 2,
          "other_platform_oauth_client": [
            {
              "client_id": "421535327263-c69n08rn83cgjg9lbbd93c0vmmbfl4rd.apps.googleusercontent.com",
              "client_type": 3
            }
          ]
        },
        "ads_service": {
          "status": 2
        }
      }
    },
    {
      "client_info": {
        "mobilesdk_app_id": "1:421535327263:android:fad96fa738a79076",
        "android_client_info": {
          "package_name": "com.iserveu.bomoney"
        }
      },
      "oauth_client": [
        {
          "client_id": "421535327263-c69n08rn83cgjg9lbbd93c0vmmbfl4rd.apps.googleusercontent.com",
          "client_type": 3
        }
      ],
      "api_key": [
        {
          "current_key": "AIzaSyAOFYyCsZ14XwV56GnfKoss8nexcBTgjsU"
        }
      ],
      "services": {
        "analytics_service": {
          "status": 1
        },
        "appinvite_service": {
          "status": 1,
          "other_platform_oauth_client": []
        },
        "ads_service": {
          "status": 2
        }
      }
    },
    {
      "client_info": {
        "mobilesdk_app_id": "1:421535327263:android:08ed426197d3c6d9",
        "android_client_info": {
          "package_name": "com.iserveu.bringpay"
        }
      },
      "oauth_client": [
        {
          "client_id": "421535327263-tmbiic99daijgi1ef0c5mpnpt8nf5aqj.apps.googleusercontent.com",
          "client_type": 1,
          "android_info": {
            "package_name": "com.iserveu.bringpay",
            "certificate_hash": "b05fcd111ae43da193b55f4d3075fb7d8a37fe9e"
          }
        },
        {
          "client_id": "421535327263-c69n08rn83cgjg9lbbd93c0vmmbfl4rd.apps.googleusercontent.com",
          "client_type": 3
        }
      ],
      "api_key": [
        {
          "current_key": "AIzaSyAOFYyCsZ14XwV56GnfKoss8nexcBTgjsU"
        }
      ],
      "services": {
        "analytics_service": {
          "status": 1
        },
        "appinvite_service": {
          "status": 2,
          "other_platform_oauth_client": [
            {
              "client_id": "421535327263-c69n08rn83cgjg9lbbd93c0vmmbfl4rd.apps.googleusercontent.com",
              "client_type": 3
            }
          ]
        },
        "ads_service": {
          "status": 2
        }
      }
    },
    {
      "client_info": {
        "mobilesdk_app_id": "1:421535327263:android:ff786bda94e20372",
        "android_client_info": {
          "package_name": "com.iserveu.cashand"
        }
      },
      "oauth_client": [
        {
          "client_id": "421535327263-chbl8eiuqo2vcp3elbhc4i9atgshq51h.apps.googleusercontent.com",
          "client_type": 1,
          "android_info": {
            "package_name": "com.iserveu.cashand",
            "certificate_hash": "b05fcd111ae43da193b55f4d3075fb7d8a37fe9e"
          }
        },
        {
          "client_id": "421535327263-c69n08rn83cgjg9lbbd93c0vmmbfl4rd.apps.googleusercontent.com",
          "client_type": 3
        }
      ],
      "api_key": [
        {
          "current_key": "AIzaSyAOFYyCsZ14XwV56GnfKoss8nexcBTgjsU"
        }
      ],
      "services": {
        "analytics_service": {
          "status": 1
        },
        "appinvite_service": {
          "status": 2,
          "other_platform_oauth_client": [
            {
              "client_id": "421535327263-c69n08rn83cgjg9lbbd93c0vmmbfl4rd.apps.googleusercontent.com",
              "client_type": 3
            }
          ]
        },
        "ads_service": {
          "status": 2
        }
      }
    },
    {
      "client_info": {
        "mobilesdk_app_id": "1:421535327263:android:1ebab3b8378ca860",
        "android_client_info": {
          "package_name": "com.iserveu.digipayfast"
        }
      },
      "oauth_client": [
        {
          "client_id": "421535327263-n3ua96i3b6sp8h7td0cvl3ld45mc04ru.apps.googleusercontent.com",
          "client_type": 1,
          "android_info": {
            "package_name": "com.iserveu.digipayfast",
            "certificate_hash": "b05fcd111ae43da193b55f4d3075fb7d8a37fe9e"
          }
        },
        {
          "client_id": "421535327263-c69n08rn83cgjg9lbbd93c0vmmbfl4rd.apps.googleusercontent.com",
          "client_type": 3
        }
      ],
      "api_key": [
        {
          "current_key": "AIzaSyAOFYyCsZ14XwV56GnfKoss8nexcBTgjsU"
        }
      ],
      "services": {
        "analytics_service": {
          "status": 1
        },
        "appinvite_service": {
          "status": 2,
          "other_platform_oauth_client": [
            {
              "client_id": "421535327263-c69n08rn83cgjg9lbbd93c0vmmbfl4rd.apps.googleusercontent.com",
              "client_type": 3
            }
          ]
        },
        "ads_service": {
          "status": 2
        }
      }
    },
    {
      "client_info": {
        "mobilesdk_app_id": "1:421535327263:android:b746624cd2081be7",
        "android_client_info": {
          "package_name": "com.iserveu.digitalindiabanking"
        }
      },
      "oauth_client": [
        {
          "client_id": "421535327263-c69n08rn83cgjg9lbbd93c0vmmbfl4rd.apps.googleusercontent.com",
          "client_type": 3
        }
      ],
      "api_key": [
        {
          "current_key": "AIzaSyAOFYyCsZ14XwV56GnfKoss8nexcBTgjsU"
        }
      ],
      "services": {
        "analytics_service": {
          "status": 1
        },
        "appinvite_service": {
          "status": 1,
          "other_platform_oauth_client": []
        },
        "ads_service": {
          "status": 2
        }
      }
    },
    {
      "client_info": {
        "mobilesdk_app_id": "1:421535327263:android:92285517dbe8da4b",
        "android_client_info": {
          "package_name": "com.iserveu.dpay"
        }
      },
      "oauth_client": [
        {
          "client_id": "421535327263-gp7tm7nk5ihnentdscarq6ojmddusgo2.apps.googleusercontent.com",
          "client_type": 1,
          "android_info": {
            "package_name": "com.iserveu.dpay",
            "certificate_hash": "b05fcd111ae43da193b55f4d3075fb7d8a37fe9e"
          }
        },
        {
          "client_id": "421535327263-c69n08rn83cgjg9lbbd93c0vmmbfl4rd.apps.googleusercontent.com",
          "client_type": 3
        }
      ],
      "api_key": [
        {
          "current_key": "AIzaSyAOFYyCsZ14XwV56GnfKoss8nexcBTgjsU"
        }
      ],
      "services": {
        "analytics_service": {
          "status": 1
        },
        "appinvite_service": {
          "status": 2,
          "other_platform_oauth_client": [
            {
              "client_id": "421535327263-c69n08rn83cgjg9lbbd93c0vmmbfl4rd.apps.googleusercontent.com",
              "client_type": 3
            }
          ]
        },
        "ads_service": {
          "status": 2
        }
      }
    },
    {
      "client_info": {
        "mobilesdk_app_id": "1:421535327263:android:019147cdb38b5046",
        "android_client_info": {
          "package_name": "com.iserveu.dseva"
        }
      },
      "oauth_client": [
        {
          "client_id": "421535327263-ncaa8b579vahk2iuan49tff9ov97dsf7.apps.googleusercontent.com",
          "client_type": 1,
          "android_info": {
            "package_name": "com.iserveu.dseva",
            "certificate_hash": "b05fcd111ae43da193b55f4d3075fb7d8a37fe9e"
          }
        },
        {
          "client_id": "421535327263-c69n08rn83cgjg9lbbd93c0vmmbfl4rd.apps.googleusercontent.com",
          "client_type": 3
        }
      ],
      "api_key": [
        {
          "current_key": "AIzaSyAOFYyCsZ14XwV56GnfKoss8nexcBTgjsU"
        }
      ],
      "services": {
        "analytics_service": {
          "status": 1
        },
        "appinvite_service": {
          "status": 2,
          "other_platform_oauth_client": [
            {
              "client_id": "421535327263-c69n08rn83cgjg9lbbd93c0vmmbfl4rd.apps.googleusercontent.com",
              "client_type": 3
            }
          ]
        },
        "ads_service": {
          "status": 2
        }
      }
    },
    {
      "client_info": {
        "mobilesdk_app_id": "1:421535327263:android:e0bf89a7e02ef99a",
        "android_client_info": {
          "package_name": "com.iserveu.emitrahub"
        }
      },
      "oauth_client": [
        {
          "client_id": "421535327263-55qfagcn00bkr5rpipk8r0hfr2ihc6ae.apps.googleusercontent.com",
          "client_type": 1,
          "android_info": {
            "package_name": "com.iserveu.emitrahub",
            "certificate_hash": "b05fcd111ae43da193b55f4d3075fb7d8a37fe9e"
          }
        },
        {
          "client_id": "421535327263-c69n08rn83cgjg9lbbd93c0vmmbfl4rd.apps.googleusercontent.com",
          "client_type": 3
        }
      ],
      "api_key": [
        {
          "current_key": "AIzaSyAOFYyCsZ14XwV56GnfKoss8nexcBTgjsU"
        }
      ],
      "services": {
        "analytics_service": {
          "status": 1
        },
        "appinvite_service": {
          "status": 2,
          "other_platform_oauth_client": [
            {
              "client_id": "421535327263-c69n08rn83cgjg9lbbd93c0vmmbfl4rd.apps.googleusercontent.com",
              "client_type": 3
            }
          ]
        },
        "ads_service": {
          "status": 2
        }
      }
    },
    {
      "client_info": {
        "mobilesdk_app_id": "1:421535327263:android:c72a1842322661bd",
        "android_client_info": {
          "package_name": "com.iserveu.esavapay"
        }
      },
      "oauth_client": [
        {
          "client_id": "421535327263-4uutnpj83vu8uhtjq7h3q2te9v5n1cmf.apps.googleusercontent.com",
          "client_type": 1,
          "android_info": {
            "package_name": "com.iserveu.esavapay",
            "certificate_hash": "b05fcd111ae43da193b55f4d3075fb7d8a37fe9e"
          }
        },
        {
          "client_id": "421535327263-c69n08rn83cgjg9lbbd93c0vmmbfl4rd.apps.googleusercontent.com",
          "client_type": 3
        }
      ],
      "api_key": [
        {
          "current_key": "AIzaSyAOFYyCsZ14XwV56GnfKoss8nexcBTgjsU"
        }
      ],
      "services": {
        "analytics_service": {
          "status": 1
        },
        "appinvite_service": {
          "status": 2,
          "other_platform_oauth_client": [
            {
              "client_id": "421535327263-c69n08rn83cgjg9lbbd93c0vmmbfl4rd.apps.googleusercontent.com",
              "client_type": 3
            }
          ]
        },
        "ads_service": {
          "status": 2
        }
      }
    },
    {
      "client_info": {
        "mobilesdk_app_id": "1:421535327263:android:d1d2ddd0a07c1e32",
        "android_client_info": {
          "package_name": "com.iserveu.fipay"
        }
      },
      "oauth_client": [
        {
          "client_id": "421535327263-na7arf7aq6mjjbdk0ug45td23a34qpbp.apps.googleusercontent.com",
          "client_type": 1,
          "android_info": {
            "package_name": "com.iserveu.fipay",
            "certificate_hash": "b05fcd111ae43da193b55f4d3075fb7d8a37fe9e"
          }
        },
        {
          "client_id": "421535327263-c69n08rn83cgjg9lbbd93c0vmmbfl4rd.apps.googleusercontent.com",
          "client_type": 3
        }
      ],
      "api_key": [
        {
          "current_key": "AIzaSyAOFYyCsZ14XwV56GnfKoss8nexcBTgjsU"
        }
      ],
      "services": {
        "analytics_service": {
          "status": 1
        },
        "appinvite_service": {
          "status": 2,
          "other_platform_oauth_client": [
            {
              "client_id": "421535327263-c69n08rn83cgjg9lbbd93c0vmmbfl4rd.apps.googleusercontent.com",
              "client_type": 3
            }
          ]
        },
        "ads_service": {
          "status": 2
        }
      }
    },
    {
      "client_info": {
        "mobilesdk_app_id": "1:421535327263:android:3f2e892d3c82e8ea",
        "android_client_info": {
          "package_name": "com.iserveu.friendspay"
        }
      },
      "oauth_client": [
        {
          "client_id": "421535327263-c69n08rn83cgjg9lbbd93c0vmmbfl4rd.apps.googleusercontent.com",
          "client_type": 3
        }
      ],
      "api_key": [
        {
          "current_key": "AIzaSyAOFYyCsZ14XwV56GnfKoss8nexcBTgjsU"
        }
      ],
      "services": {
        "analytics_service": {
          "status": 1
        },
        "appinvite_service": {
          "status": 1,
          "other_platform_oauth_client": []
        },
        "ads_service": {
          "status": 2
        }
      }
    },
    {
      "client_info": {
        "mobilesdk_app_id": "1:421535327263:android:4f4289eab9e1f082",
        "android_client_info": {
          "package_name": "com.iserveu.fundpe"
        }
      },
      "oauth_client": [
        {
          "client_id": "421535327263-c69n08rn83cgjg9lbbd93c0vmmbfl4rd.apps.googleusercontent.com",
          "client_type": 3
        }
      ],
      "api_key": [
        {
          "current_key": "AIzaSyAOFYyCsZ14XwV56GnfKoss8nexcBTgjsU"
        }
      ],
      "services": {
        "analytics_service": {
          "status": 1
        },
        "appinvite_service": {
          "status": 1,
          "other_platform_oauth_client": []
        },
        "ads_service": {
          "status": 2
        }
      }
    },
    {
      "client_info": {
        "mobilesdk_app_id": "1:421535327263:android:dc2953278639d695",
        "android_client_info": {
          "package_name": "com.iserveu.instacash"
        }
      },
      "oauth_client": [
        {
          "client_id": "421535327263-qi893379njmtl99naavfgfleeba1upu5.apps.googleusercontent.com",
          "client_type": 1,
          "android_info": {
            "package_name": "com.iserveu.instacash",
            "certificate_hash": "b05fcd111ae43da193b55f4d3075fb7d8a37fe9e"
          }
        },
        {
          "client_id": "421535327263-c69n08rn83cgjg9lbbd93c0vmmbfl4rd.apps.googleusercontent.com",
          "client_type": 3
        }
      ],
      "api_key": [
        {
          "current_key": "AIzaSyAOFYyCsZ14XwV56GnfKoss8nexcBTgjsU"
        }
      ],
      "services": {
        "analytics_service": {
          "status": 1
        },
        "appinvite_service": {
          "status": 2,
          "other_platform_oauth_client": [
            {
              "client_id": "421535327263-c69n08rn83cgjg9lbbd93c0vmmbfl4rd.apps.googleusercontent.com",
              "client_type": 3
            }
          ]
        },
        "ads_service": {
          "status": 2
        }
      }
    },
    {
      "client_info": {
        "mobilesdk_app_id": "1:421535327263:android:d9bcf5479a1500b9",
        "android_client_info": {
          "package_name": "com.iserveu.isewa"
        }
      },
      "oauth_client": [
        {
          "client_id": "421535327263-uoeh6gqin9iu0qpav43h1gago6qnc88i.apps.googleusercontent.com",
          "client_type": 1,
          "android_info": {
            "package_name": "com.iserveu.isewa",
            "certificate_hash": "b05fcd111ae43da193b55f4d3075fb7d8a37fe9e"
          }
        },
        {
          "client_id": "421535327263-c69n08rn83cgjg9lbbd93c0vmmbfl4rd.apps.googleusercontent.com",
          "client_type": 3
        }
      ],
      "api_key": [
        {
          "current_key": "AIzaSyAOFYyCsZ14XwV56GnfKoss8nexcBTgjsU"
        }
      ],
      "services": {
        "analytics_service": {
          "status": 1
        },
        "appinvite_service": {
          "status": 2,
          "other_platform_oauth_client": [
            {
              "client_id": "421535327263-c69n08rn83cgjg9lbbd93c0vmmbfl4rd.apps.googleusercontent.com",
              "client_type": 3
            }
          ]
        },
        "ads_service": {
          "status": 2
        }
      }
    },
    {
      "client_info": {
        "mobilesdk_app_id": "1:421535327263:android:8424dc9e71e913f5",
        "android_client_info": {
          "package_name": "com.iserveu.krac"
        }
      },
      "oauth_client": [
        {
          "client_id": "421535327263-hsp32oe7ur1n821u3fdk59h3ahb8gfnn.apps.googleusercontent.com",
          "client_type": 1,
          "android_info": {
            "package_name": "com.iserveu.krac",
            "certificate_hash": "b05fcd111ae43da193b55f4d3075fb7d8a37fe9e"
          }
        },
        {
          "client_id": "421535327263-c69n08rn83cgjg9lbbd93c0vmmbfl4rd.apps.googleusercontent.com",
          "client_type": 3
        }
      ],
      "api_key": [
        {
          "current_key": "AIzaSyAOFYyCsZ14XwV56GnfKoss8nexcBTgjsU"
        }
      ],
      "services": {
        "analytics_service": {
          "status": 1
        },
        "appinvite_service": {
          "status": 2,
          "other_platform_oauth_client": [
            {
              "client_id": "421535327263-c69n08rn83cgjg9lbbd93c0vmmbfl4rd.apps.googleusercontent.com",
              "client_type": 3
            }
          ]
        },
        "ads_service": {
          "status": 2
        }
      }
    },
    {
      "client_info": {
        "mobilesdk_app_id": "1:421535327263:android:aaf8cd7817ac3360",
        "android_client_info": {
          "package_name": "com.iserveu.mdigipay"
        }
      },
      "oauth_client": [
        {
          "client_id": "421535327263-24k2scvhk3d4rbbl449d2mnm3a69g2se.apps.googleusercontent.com",
          "client_type": 1,
          "android_info": {
            "package_name": "com.iserveu.mdigipay",
            "certificate_hash": "b05fcd111ae43da193b55f4d3075fb7d8a37fe9e"
          }
        },
        {
          "client_id": "421535327263-c69n08rn83cgjg9lbbd93c0vmmbfl4rd.apps.googleusercontent.com",
          "client_type": 3
        }
      ],
      "api_key": [
        {
          "current_key": "AIzaSyAOFYyCsZ14XwV56GnfKoss8nexcBTgjsU"
        }
      ],
      "services": {
        "analytics_service": {
          "status": 1
        },
        "appinvite_service": {
          "status": 2,
          "other_platform_oauth_client": [
            {
              "client_id": "421535327263-c69n08rn83cgjg9lbbd93c0vmmbfl4rd.apps.googleusercontent.com",
              "client_type": 3
            }
          ]
        },
        "ads_service": {
          "status": 2
        }
      }
    },
    {
      "client_info": {
        "mobilesdk_app_id": "1:421535327263:android:1d11591c6db063be",
        "android_client_info": {
          "package_name": "com.iserveu.money"
        }
      },
      "oauth_client": [
        {
          "client_id": "421535327263-3l6gerk4q0aoi3vs879kt8rofefvlnsg.apps.googleusercontent.com",
          "client_type": 1,
          "android_info": {
            "package_name": "com.iserveu.money",
            "certificate_hash": "b05fcd111ae43da193b55f4d3075fb7d8a37fe9e"
          }
        },
        {
          "client_id": "421535327263-c69n08rn83cgjg9lbbd93c0vmmbfl4rd.apps.googleusercontent.com",
          "client_type": 3
        }
      ],
      "api_key": [
        {
          "current_key": "AIzaSyAOFYyCsZ14XwV56GnfKoss8nexcBTgjsU"
        }
      ],
      "services": {
        "analytics_service": {
          "status": 1
        },
        "appinvite_service": {
          "status": 2,
          "other_platform_oauth_client": [
            {
              "client_id": "421535327263-c69n08rn83cgjg9lbbd93c0vmmbfl4rd.apps.googleusercontent.com",
              "client_type": 3
            }
          ]
        },
        "ads_service": {
          "status": 2
        }
      }
    },
    {
      "client_info": {
        "mobilesdk_app_id": "1:421535327263:android:ba7f33514324a21a",
        "android_client_info": {
          "package_name": "com.iserveu.movecashless"
        }
      },
      "oauth_client": [
        {
          "client_id": "421535327263-oo9cp6chq3les21a814pkirfgpks6u8t.apps.googleusercontent.com",
          "client_type": 1,
          "android_info": {
            "package_name": "com.iserveu.movecashless",
            "certificate_hash": "b05fcd111ae43da193b55f4d3075fb7d8a37fe9e"
          }
        },
        {
          "client_id": "421535327263-c69n08rn83cgjg9lbbd93c0vmmbfl4rd.apps.googleusercontent.com",
          "client_type": 3
        }
      ],
      "api_key": [
        {
          "current_key": "AIzaSyAOFYyCsZ14XwV56GnfKoss8nexcBTgjsU"
        }
      ],
      "services": {
        "analytics_service": {
          "status": 1
        },
        "appinvite_service": {
          "status": 2,
          "other_platform_oauth_client": [
            {
              "client_id": "421535327263-c69n08rn83cgjg9lbbd93c0vmmbfl4rd.apps.googleusercontent.com",
              "client_type": 3
            }
          ]
        },
        "ads_service": {
          "status": 2
        }
      }
    },
    {
      "client_info": {
        "mobilesdk_app_id": "1:421535327263:android:03c6aa1c0b75889d",
        "android_client_info": {
          "package_name": "com.iserveu.nammabharat"
        }
      },
      "oauth_client": [
        {
          "client_id": "421535327263-c69n08rn83cgjg9lbbd93c0vmmbfl4rd.apps.googleusercontent.com",
          "client_type": 3
        }
      ],
      "api_key": [
        {
          "current_key": "AIzaSyAOFYyCsZ14XwV56GnfKoss8nexcBTgjsU"
        }
      ],
      "services": {
        "analytics_service": {
          "status": 1
        },
        "appinvite_service": {
          "status": 1,
          "other_platform_oauth_client": []
        },
        "ads_service": {
          "status": 2
        }
      }
    },
    {
      "client_info": {
        "mobilesdk_app_id": "1:421535327263:android:0e60ceb992225ce5",
        "android_client_info": {
          "package_name": "com.iserveu.nmarata"
        }
      },
      "oauth_client": [
        {
          "client_id": "421535327263-nof53to58ae7rouanq89j2lfkgqa1rva.apps.googleusercontent.com",
          "client_type": 1,
          "android_info": {
            "package_name": "com.iserveu.nmarata",
            "certificate_hash": "b05fcd111ae43da193b55f4d3075fb7d8a37fe9e"
          }
        },
        {
          "client_id": "421535327263-c69n08rn83cgjg9lbbd93c0vmmbfl4rd.apps.googleusercontent.com",
          "client_type": 3
        }
      ],
      "api_key": [
        {
          "current_key": "AIzaSyAOFYyCsZ14XwV56GnfKoss8nexcBTgjsU"
        }
      ],
      "services": {
        "analytics_service": {
          "status": 1
        },
        "appinvite_service": {
          "status": 2,
          "other_platform_oauth_client": [
            {
              "client_id": "421535327263-c69n08rn83cgjg9lbbd93c0vmmbfl4rd.apps.googleusercontent.com",
              "client_type": 3
            }
          ]
        },
        "ads_service": {
          "status": 2
        }
      }
    },
    {
      "client_info": {
        "mobilesdk_app_id": "1:421535327263:android:41b178d7be07be1c",
        "android_client_info": {
          "package_name": "com.iserveu.omfinserve"
        }
      },
      "oauth_client": [
        {
          "client_id": "421535327263-tiqc2e35pl6d5fjrgf5f5um9fos47r1q.apps.googleusercontent.com",
          "client_type": 1,
          "android_info": {
            "package_name": "com.iserveu.omfinserve",
            "certificate_hash": "b05fcd111ae43da193b55f4d3075fb7d8a37fe9e"
          }
        },
        {
          "client_id": "421535327263-c69n08rn83cgjg9lbbd93c0vmmbfl4rd.apps.googleusercontent.com",
          "client_type": 3
        }
      ],
      "api_key": [
        {
          "current_key": "AIzaSyAOFYyCsZ14XwV56GnfKoss8nexcBTgjsU"
        }
      ],
      "services": {
        "analytics_service": {
          "status": 1
        },
        "appinvite_service": {
          "status": 2,
          "other_platform_oauth_client": [
            {
              "client_id": "421535327263-c69n08rn83cgjg9lbbd93c0vmmbfl4rd.apps.googleusercontent.com",
              "client_type": 3
            }
          ]
        },
        "ads_service": {
          "status": 2
        }
      }
    },
    {
      "client_info": {
        "mobilesdk_app_id": "1:421535327263:android:4ca9dc79beca3ec9",
        "android_client_info": {
          "package_name": "com.iserveu.oneindiapayments"
        }
      },
      "oauth_client": [
        {
          "client_id": "421535327263-c69n08rn83cgjg9lbbd93c0vmmbfl4rd.apps.googleusercontent.com",
          "client_type": 3
        }
      ],
      "api_key": [
        {
          "current_key": "AIzaSyAOFYyCsZ14XwV56GnfKoss8nexcBTgjsU"
        }
      ],
      "services": {
        "analytics_service": {
          "status": 1
        },
        "appinvite_service": {
          "status": 1,
          "other_platform_oauth_client": []
        },
        "ads_service": {
          "status": 2
        }
      }
    },
    {
      "client_info": {
        "mobilesdk_app_id": "1:421535327263:android:070f6efd2adf8226",
        "android_client_info": {
          "package_name": "com.iserveu.payacross"
        }
      },
      "oauth_client": [
        {
          "client_id": "421535327263-c69n08rn83cgjg9lbbd93c0vmmbfl4rd.apps.googleusercontent.com",
          "client_type": 3
        }
      ],
      "api_key": [
        {
          "current_key": "AIzaSyAOFYyCsZ14XwV56GnfKoss8nexcBTgjsU"
        }
      ],
      "services": {
        "analytics_service": {
          "status": 1
        },
        "appinvite_service": {
          "status": 1,
          "other_platform_oauth_client": []
        },
        "ads_service": {
          "status": 2
        }
      }
    },
    {
      "client_info": {
        "mobilesdk_app_id": "1:421535327263:android:e8a2ca1990f3bcc3",
        "android_client_info": {
          "package_name": "com.iserveu.payatm"
        }
      },
      "oauth_client": [
        {
          "client_id": "421535327263-6073rda3c3a2410s5m1lcnufk8sse72t.apps.googleusercontent.com",
          "client_type": 1,
          "android_info": {
            "package_name": "com.iserveu.payatm",
            "certificate_hash": "b05fcd111ae43da193b55f4d3075fb7d8a37fe9e"
          }
        },
        {
          "client_id": "421535327263-c69n08rn83cgjg9lbbd93c0vmmbfl4rd.apps.googleusercontent.com",
          "client_type": 3
        }
      ],
      "api_key": [
        {
          "current_key": "AIzaSyAOFYyCsZ14XwV56GnfKoss8nexcBTgjsU"
        }
      ],
      "services": {
        "analytics_service": {
          "status": 1
        },
        "appinvite_service": {
          "status": 2,
          "other_platform_oauth_client": [
            {
              "client_id": "421535327263-c69n08rn83cgjg9lbbd93c0vmmbfl4rd.apps.googleusercontent.com",
              "client_type": 3
            }
          ]
        },
        "ads_service": {
          "status": 2
        }
      }
    },
    {
      "client_info": {
        "mobilesdk_app_id": "1:421535327263:android:5f045ad2ddcf72f6",
        "android_client_info": {
          "package_name": "com.iserveu.paymnc"
        }
      },
      "oauth_client": [
        {
          "client_id": "421535327263-gq6d22p5mu4a0ufahvpskujk0i6udnbg.apps.googleusercontent.com",
          "client_type": 1,
          "android_info": {
            "package_name": "com.iserveu.paymnc",
            "certificate_hash": "b05fcd111ae43da193b55f4d3075fb7d8a37fe9e"
          }
        },
        {
          "client_id": "421535327263-c69n08rn83cgjg9lbbd93c0vmmbfl4rd.apps.googleusercontent.com",
          "client_type": 3
        }
      ],
      "api_key": [
        {
          "current_key": "AIzaSyAOFYyCsZ14XwV56GnfKoss8nexcBTgjsU"
        }
      ],
      "services": {
        "analytics_service": {
          "status": 1
        },
        "appinvite_service": {
          "status": 2,
          "other_platform_oauth_client": [
            {
              "client_id": "421535327263-c69n08rn83cgjg9lbbd93c0vmmbfl4rd.apps.googleusercontent.com",
              "client_type": 3
            }
          ]
        },
        "ads_service": {
          "status": 2
        }
      }
    },
    {
      "client_info": {
        "mobilesdk_app_id": "1:421535327263:android:9dd47f8dfb929e3a",
        "android_client_info": {
          "package_name": "com.iserveu.payup"
        }
      },
      "oauth_client": [
        {
          "client_id": "421535327263-0fu6jfblqlelpm7c74m7smnic6i61ufs.apps.googleusercontent.com",
          "client_type": 1,
          "android_info": {
            "package_name": "com.iserveu.payup",
            "certificate_hash": "b05fcd111ae43da193b55f4d3075fb7d8a37fe9e"
          }
        },
        {
          "client_id": "421535327263-c69n08rn83cgjg9lbbd93c0vmmbfl4rd.apps.googleusercontent.com",
          "client_type": 3
        }
      ],
      "api_key": [
        {
          "current_key": "AIzaSyAOFYyCsZ14XwV56GnfKoss8nexcBTgjsU"
        }
      ],
      "services": {
        "analytics_service": {
          "status": 1
        },
        "appinvite_service": {
          "status": 2,
          "other_platform_oauth_client": [
            {
              "client_id": "421535327263-c69n08rn83cgjg9lbbd93c0vmmbfl4rd.apps.googleusercontent.com",
              "client_type": 3
            }
          ]
        },
        "ads_service": {
          "status": 2
        }
      }
    },
    {
      "client_info": {
        "mobilesdk_app_id": "1:421535327263:android:22052798d337fc0c",
        "android_client_info": {
          "package_name": "com.iserveu.pcppay"
        }
      },
      "oauth_client": [
        {
          "client_id": "421535327263-c69n08rn83cgjg9lbbd93c0vmmbfl4rd.apps.googleusercontent.com",
          "client_type": 3
        }
      ],
      "api_key": [
        {
          "current_key": "AIzaSyAOFYyCsZ14XwV56GnfKoss8nexcBTgjsU"
        }
      ],
      "services": {
        "analytics_service": {
          "status": 1
        },
        "appinvite_service": {
          "status": 1,
          "other_platform_oauth_client": []
        },
        "ads_service": {
          "status": 2
        }
      }
    },
    {
      "client_info": {
        "mobilesdk_app_id": "1:421535327263:android:b4a2b7df824fe0c2",
        "android_client_info": {
          "package_name": "com.iserveu.pmoney"
        }
      },
      "oauth_client": [
        {
          "client_id": "421535327263-bcscs2mlsjkers95dv2tjv33sl9tkgck.apps.googleusercontent.com",
          "client_type": 1,
          "android_info": {
            "package_name": "com.iserveu.pmoney",
            "certificate_hash": "b05fcd111ae43da193b55f4d3075fb7d8a37fe9e"
          }
        },
        {
          "client_id": "421535327263-c69n08rn83cgjg9lbbd93c0vmmbfl4rd.apps.googleusercontent.com",
          "client_type": 3
        }
      ],
      "api_key": [
        {
          "current_key": "AIzaSyAOFYyCsZ14XwV56GnfKoss8nexcBTgjsU"
        }
      ],
      "services": {
        "analytics_service": {
          "status": 1
        },
        "appinvite_service": {
          "status": 2,
          "other_platform_oauth_client": [
            {
              "client_id": "421535327263-c69n08rn83cgjg9lbbd93c0vmmbfl4rd.apps.googleusercontent.com",
              "client_type": 3
            }
          ]
        },
        "ads_service": {
          "status": 2
        }
      }
    },
    {
      "client_info": {
        "mobilesdk_app_id": "1:421535327263:android:771954a7e8123964",
        "android_client_info": {
          "package_name": "com.iserveu.pragati"
        }
      },
      "oauth_client": [
        {
          "client_id": "421535327263-dveuf61i8ii1tn2ee5004cm5et7ltb2c.apps.googleusercontent.com",
          "client_type": 1,
          "android_info": {
            "package_name": "com.iserveu.pragati",
            "certificate_hash": "b05fcd111ae43da193b55f4d3075fb7d8a37fe9e"
          }
        },
        {
          "client_id": "421535327263-c69n08rn83cgjg9lbbd93c0vmmbfl4rd.apps.googleusercontent.com",
          "client_type": 3
        }
      ],
      "api_key": [
        {
          "current_key": "AIzaSyAOFYyCsZ14XwV56GnfKoss8nexcBTgjsU"
        }
      ],
      "services": {
        "analytics_service": {
          "status": 1
        },
        "appinvite_service": {
          "status": 2,
          "other_platform_oauth_client": [
            {
              "client_id": "421535327263-c69n08rn83cgjg9lbbd93c0vmmbfl4rd.apps.googleusercontent.com",
              "client_type": 3
            }
          ]
        },
        "ads_service": {
          "status": 2
        }
      }
    },
    {
      "client_info": {
        "mobilesdk_app_id": "1:421535327263:android:d3a98738254cc814",
        "android_client_info": {
          "package_name": "com.iserveu.realpay"
        }
      },
      "oauth_client": [
        {
          "client_id": "421535327263-o0des7rovcln26kehlk1k6ubmi06jjq5.apps.googleusercontent.com",
          "client_type": 1,
          "android_info": {
            "package_name": "com.iserveu.realpay",
            "certificate_hash": "b05fcd111ae43da193b55f4d3075fb7d8a37fe9e"
          }
        },
        {
          "client_id": "421535327263-c69n08rn83cgjg9lbbd93c0vmmbfl4rd.apps.googleusercontent.com",
          "client_type": 3
        }
      ],
      "api_key": [
        {
          "current_key": "AIzaSyAOFYyCsZ14XwV56GnfKoss8nexcBTgjsU"
        }
      ],
      "services": {
        "analytics_service": {
          "status": 1
        },
        "appinvite_service": {
          "status": 2,
          "other_platform_oauth_client": [
            {
              "client_id": "421535327263-c69n08rn83cgjg9lbbd93c0vmmbfl4rd.apps.googleusercontent.com",
              "client_type": 3
            }
          ]
        },
        "ads_service": {
          "status": 2
        }
      }
    },
    {
      "client_info": {
        "mobilesdk_app_id": "1:421535327263:android:d28991273450b7a0",
        "android_client_info": {
          "package_name": "com.iserveu.rekha"
        }
      },
      "oauth_client": [
        {
          "client_id": "421535327263-rast37iiq8t6htnetpkv535079daasal.apps.googleusercontent.com",
          "client_type": 1,
          "android_info": {
            "package_name": "com.iserveu.rekha",
            "certificate_hash": "b05fcd111ae43da193b55f4d3075fb7d8a37fe9e"
          }
        },
        {
          "client_id": "421535327263-c69n08rn83cgjg9lbbd93c0vmmbfl4rd.apps.googleusercontent.com",
          "client_type": 3
        }
      ],
      "api_key": [
        {
          "current_key": "AIzaSyAOFYyCsZ14XwV56GnfKoss8nexcBTgjsU"
        }
      ],
      "services": {
        "analytics_service": {
          "status": 1
        },
        "appinvite_service": {
          "status": 2,
          "other_platform_oauth_client": [
            {
              "client_id": "421535327263-c69n08rn83cgjg9lbbd93c0vmmbfl4rd.apps.googleusercontent.com",
              "client_type": 3
            }
          ]
        },
        "ads_service": {
          "status": 2
        }
      }
    },
    {
      "client_info": {
        "mobilesdk_app_id": "1:421535327263:android:92f3b77b7582d278",
        "android_client_info": {
          "package_name": "com.iserveu.sakala"
        }
      },
      "oauth_client": [
        {
          "client_id": "421535327263-levgppm9iunnmqess9siglrr9dqs3n9e.apps.googleusercontent.com",
          "client_type": 1,
          "android_info": {
            "package_name": "com.iserveu.sakala",
            "certificate_hash": "b05fcd111ae43da193b55f4d3075fb7d8a37fe9e"
          }
        },
        {
          "client_id": "421535327263-c69n08rn83cgjg9lbbd93c0vmmbfl4rd.apps.googleusercontent.com",
          "client_type": 3
        }
      ],
      "api_key": [
        {
          "current_key": "AIzaSyAOFYyCsZ14XwV56GnfKoss8nexcBTgjsU"
        }
      ],
      "services": {
        "analytics_service": {
          "status": 1
        },
        "appinvite_service": {
          "status": 2,
          "other_platform_oauth_client": [
            {
              "client_id": "421535327263-c69n08rn83cgjg9lbbd93c0vmmbfl4rd.apps.googleusercontent.com",
              "client_type": 3
            }
          ]
        },
        "ads_service": {
          "status": 2
        }
      }
    },
    {
      "client_info": {
        "mobilesdk_app_id": "1:421535327263:android:28dad08885ed73c1",
        "android_client_info": {
          "package_name": "com.iserveu.sanpay"
        }
      },
      "oauth_client": [
        {
          "client_id": "421535327263-c69n08rn83cgjg9lbbd93c0vmmbfl4rd.apps.googleusercontent.com",
          "client_type": 3
        }
      ],
      "api_key": [
        {
          "current_key": "AIzaSyAOFYyCsZ14XwV56GnfKoss8nexcBTgjsU"
        }
      ],
      "services": {
        "analytics_service": {
          "status": 1
        },
        "appinvite_service": {
          "status": 1,
          "other_platform_oauth_client": []
        },
        "ads_service": {
          "status": 2
        }
      }
    },
    {
      "client_info": {
        "mobilesdk_app_id": "1:421535327263:android:1c7ec7a7bbddaa6d",
        "android_client_info": {
          "package_name": "com.iserveu.saralpay"
        }
      },
      "oauth_client": [
        {
          "client_id": "421535327263-7v0qosir23q7dctet4c7j9osl1hf1ua4.apps.googleusercontent.com",
          "client_type": 1,
          "android_info": {
            "package_name": "com.iserveu.saralpay",
            "certificate_hash": "b05fcd111ae43da193b55f4d3075fb7d8a37fe9e"
          }
        },
        {
          "client_id": "421535327263-c69n08rn83cgjg9lbbd93c0vmmbfl4rd.apps.googleusercontent.com",
          "client_type": 3
        }
      ],
      "api_key": [
        {
          "current_key": "AIzaSyAOFYyCsZ14XwV56GnfKoss8nexcBTgjsU"
        }
      ],
      "services": {
        "analytics_service": {
          "status": 1
        },
        "appinvite_service": {
          "status": 2,
          "other_platform_oauth_client": [
            {
              "client_id": "421535327263-c69n08rn83cgjg9lbbd93c0vmmbfl4rd.apps.googleusercontent.com",
              "client_type": 3
            }
          ]
        },
        "ads_service": {
          "status": 2
        }
      }
    },
    {
      "client_info": {
        "mobilesdk_app_id": "1:421535327263:android:f293f88e703102c7",
        "android_client_info": {
          "package_name": "com.iserveu.saservice"
        }
      },
      "oauth_client": [
        {
          "client_id": "421535327263-fogrscqtonsj04sa60fsc2h293fcg5f9.apps.googleusercontent.com",
          "client_type": 1,
          "android_info": {
            "package_name": "com.iserveu.saservice",
            "certificate_hash": "b05fcd111ae43da193b55f4d3075fb7d8a37fe9e"
          }
        },
        {
          "client_id": "421535327263-c69n08rn83cgjg9lbbd93c0vmmbfl4rd.apps.googleusercontent.com",
          "client_type": 3
        }
      ],
      "api_key": [
        {
          "current_key": "AIzaSyAOFYyCsZ14XwV56GnfKoss8nexcBTgjsU"
        }
      ],
      "services": {
        "analytics_service": {
          "status": 1
        },
        "appinvite_service": {
          "status": 2,
          "other_platform_oauth_client": [
            {
              "client_id": "421535327263-c69n08rn83cgjg9lbbd93c0vmmbfl4rd.apps.googleusercontent.com",
              "client_type": 3
            }
          ]
        },
        "ads_service": {
          "status": 2
        }
      }
    },
    {
      "client_info": {
        "mobilesdk_app_id": "1:421535327263:android:132e45978cdc1760",
        "android_client_info": {
          "package_name": "com.iserveu.shivamdigitalservices"
        }
      },
      "oauth_client": [
        {
          "client_id": "421535327263-c69n08rn83cgjg9lbbd93c0vmmbfl4rd.apps.googleusercontent.com",
          "client_type": 3
        }
      ],
      "api_key": [
        {
          "current_key": "AIzaSyAOFYyCsZ14XwV56GnfKoss8nexcBTgjsU"
        }
      ],
      "services": {
        "analytics_service": {
          "status": 1
        },
        "appinvite_service": {
          "status": 1,
          "other_platform_oauth_client": []
        },
        "ads_service": {
          "status": 2
        }
      }
    },
    {
      "client_info": {
        "mobilesdk_app_id": "1:421535327263:android:2c291ab5382b8661",
        "android_client_info": {
          "package_name": "com.iserveu.smartodisha"
        }
      },
      "oauth_client": [
        {
          "client_id": "421535327263-c69n08rn83cgjg9lbbd93c0vmmbfl4rd.apps.googleusercontent.com",
          "client_type": 3
        }
      ],
      "api_key": [
        {
          "current_key": "AIzaSyAOFYyCsZ14XwV56GnfKoss8nexcBTgjsU"
        }
      ],
      "services": {
        "analytics_service": {
          "status": 1
        },
        "appinvite_service": {
          "status": 1,
          "other_platform_oauth_client": []
        },
        "ads_service": {
          "status": 2
        }
      }
    },
    {
      "client_info": {
        "mobilesdk_app_id": "1:421535327263:android:3b0e6bd1e986fe26",
        "android_client_info": {
          "package_name": "com.iserveu.smartpayservice"
        }
      },
      "oauth_client": [
        {
          "client_id": "421535327263-c69n08rn83cgjg9lbbd93c0vmmbfl4rd.apps.googleusercontent.com",
          "client_type": 3
        }
      ],
      "api_key": [
        {
          "current_key": "AIzaSyAOFYyCsZ14XwV56GnfKoss8nexcBTgjsU"
        }
      ],
      "services": {
        "analytics_service": {
          "status": 1
        },
        "appinvite_service": {
          "status": 1,
          "other_platform_oauth_client": []
        },
        "ads_service": {
          "status": 2
        }
      }
    },
    {
      "client_info": {
        "mobilesdk_app_id": "1:421535327263:android:6c49c03f3de4fa28",
        "android_client_info": {
          "package_name": "com.iserveu.spoint"
        }
      },
      "oauth_client": [
        {
          "client_id": "421535327263-c69n08rn83cgjg9lbbd93c0vmmbfl4rd.apps.googleusercontent.com",
          "client_type": 3
        }
      ],
      "api_key": [
        {
          "current_key": "AIzaSyAOFYyCsZ14XwV56GnfKoss8nexcBTgjsU"
        }
      ],
      "services": {
        "analytics_service": {
          "status": 1
        },
        "appinvite_service": {
          "status": 1,
          "other_platform_oauth_client": []
        },
        "ads_service": {
          "status": 2
        }
      }
    },
    {
      "client_info": {
        "mobilesdk_app_id": "1:421535327263:android:d91f570bb1d052bf",
        "android_client_info": {
          "package_name": "com.iserveu.sps"
        }
      },
      "oauth_client": [
        {
          "client_id": "421535327263-6906irg9u413iig97uq9q7b4dkphjs5v.apps.googleusercontent.com",
          "client_type": 1,
          "android_info": {
            "package_name": "com.iserveu.sps",
            "certificate_hash": "b05fcd111ae43da193b55f4d3075fb7d8a37fe9e"
          }
        },
        {
          "client_id": "421535327263-c69n08rn83cgjg9lbbd93c0vmmbfl4rd.apps.googleusercontent.com",
          "client_type": 3
        }
      ],
      "api_key": [
        {
          "current_key": "AIzaSyAOFYyCsZ14XwV56GnfKoss8nexcBTgjsU"
        }
      ],
      "services": {
        "analytics_service": {
          "status": 1
        },
        "appinvite_service": {
          "status": 2,
          "other_platform_oauth_client": [
            {
              "client_id": "421535327263-c69n08rn83cgjg9lbbd93c0vmmbfl4rd.apps.googleusercontent.com",
              "client_type": 3
            }
          ]
        },
        "ads_service": {
          "status": 2
        }
      }
    },
    {
      "client_info": {
        "mobilesdk_app_id": "1:421535327263:android:dce4c77ecd2bb658",
        "android_client_info": {
          "package_name": "com.iserveu.ssf"
        }
      },
      "oauth_client": [
        {
          "client_id": "421535327263-caf37dettbor35so6jlrjn42br736sqd.apps.googleusercontent.com",
          "client_type": 1,
          "android_info": {
            "package_name": "com.iserveu.ssf",
            "certificate_hash": "b05fcd111ae43da193b55f4d3075fb7d8a37fe9e"
          }
        },
        {
          "client_id": "421535327263-c69n08rn83cgjg9lbbd93c0vmmbfl4rd.apps.googleusercontent.com",
          "client_type": 3
        }
      ],
      "api_key": [
        {
          "current_key": "AIzaSyAOFYyCsZ14XwV56GnfKoss8nexcBTgjsU"
        }
      ],
      "services": {
        "analytics_service": {
          "status": 1
        },
        "appinvite_service": {
          "status": 2,
          "other_platform_oauth_client": [
            {
              "client_id": "421535327263-c69n08rn83cgjg9lbbd93c0vmmbfl4rd.apps.googleusercontent.com",
              "client_type": 3
            }
          ]
        },
        "ads_service": {
          "status": 2
        }
      }
    },
    {
      "client_info": {
        "mobilesdk_app_id": "1:421535327263:android:473fad7d351ce7a1",
        "android_client_info": {
          "package_name": "com.iserveu.sumptuoustrading"
        }
      },
      "oauth_client": [
        {
          "client_id": "421535327263-c69n08rn83cgjg9lbbd93c0vmmbfl4rd.apps.googleusercontent.com",
          "client_type": 3
        }
      ],
      "api_key": [
        {
          "current_key": "AIzaSyAOFYyCsZ14XwV56GnfKoss8nexcBTgjsU"
        }
      ],
      "services": {
        "analytics_service": {
          "status": 1
        },
        "appinvite_service": {
          "status": 1,
          "other_platform_oauth_client": []
        },
        "ads_service": {
          "status": 2
        }
      }
    },
    {
      "client_info": {
        "mobilesdk_app_id": "1:421535327263:android:eb9ef3a2165563f1",
        "android_client_info": {
          "package_name": "com.iserveu.thumbpay"
        }
      },
      "oauth_client": [
        {
          "client_id": "421535327263-oiai4pq0caehf1fb6u32dkfocm2bq6eh.apps.googleusercontent.com",
          "client_type": 1,
          "android_info": {
            "package_name": "com.iserveu.thumbpay",
            "certificate_hash": "b05fcd111ae43da193b55f4d3075fb7d8a37fe9e"
          }
        },
        {
          "client_id": "421535327263-c69n08rn83cgjg9lbbd93c0vmmbfl4rd.apps.googleusercontent.com",
          "client_type": 3
        }
      ],
      "api_key": [
        {
          "current_key": "AIzaSyAOFYyCsZ14XwV56GnfKoss8nexcBTgjsU"
        }
      ],
      "services": {
        "analytics_service": {
          "status": 1
        },
        "appinvite_service": {
          "status": 2,
          "other_platform_oauth_client": [
            {
              "client_id": "421535327263-c69n08rn83cgjg9lbbd93c0vmmbfl4rd.apps.googleusercontent.com",
              "client_type": 3
            }
          ]
        },
        "ads_service": {
          "status": 2
        }
      }
    },
    {
      "client_info": {
        "mobilesdk_app_id": "1:421535327263:android:d20090bb52be986b",
        "android_client_info": {
          "package_name": "com.iserveu.toto"
        }
      },
      "oauth_client": [
        {
          "client_id": "421535327263-bhm19j5eimskejjvmnsh9dcjmfjmg75d.apps.googleusercontent.com",
          "client_type": 1,
          "android_info": {
            "package_name": "com.iserveu.toto",
            "certificate_hash": "b05fcd111ae43da193b55f4d3075fb7d8a37fe9e"
          }
        },
        {
          "client_id": "421535327263-c69n08rn83cgjg9lbbd93c0vmmbfl4rd.apps.googleusercontent.com",
          "client_type": 3
        }
      ],
      "api_key": [
        {
          "current_key": "AIzaSyAOFYyCsZ14XwV56GnfKoss8nexcBTgjsU"
        }
      ],
      "services": {
        "analytics_service": {
          "status": 1
        },
        "appinvite_service": {
          "status": 2,
          "other_platform_oauth_client": [
            {
              "client_id": "421535327263-c69n08rn83cgjg9lbbd93c0vmmbfl4rd.apps.googleusercontent.com",
              "client_type": 3
            }
          ]
        },
        "ads_service": {
          "status": 2
        }
      }
    },
    {
      "client_info": {
        "mobilesdk_app_id": "1:421535327263:android:a95e5cf16ae72c7d",
        "android_client_info": {
          "package_name": "com.iserveu.vinayakinfotech"
        }
      },
      "oauth_client": [
        {
          "client_id": "421535327263-c69n08rn83cgjg9lbbd93c0vmmbfl4rd.apps.googleusercontent.com",
          "client_type": 3
        }
      ],
      "api_key": [
        {
          "current_key": "AIzaSyAOFYyCsZ14XwV56GnfKoss8nexcBTgjsU"
        }
      ],
      "services": {
        "analytics_service": {
          "status": 1
        },
        "appinvite_service": {
          "status": 1,
          "other_platform_oauth_client": []
        },
        "ads_service": {
          "status": 2
        }
      }
    },
    {
      "client_info": {
        "mobilesdk_app_id": "1:421535327263:android:f294723ad50aa5ce",
        "android_client_info": {
          "package_name": "com.samriddhi.aeps"
        }
      },
      "oauth_client": [
        {
          "client_id": "421535327263-ksvjibh6bm7no7j0jfmtlfh5f6e6hvh2.apps.googleusercontent.com",
          "client_type": 1,
          "android_info": {
            "package_name": "com.samriddhi.aeps",
            "certificate_hash": "b05fcd111ae43da193b55f4d3075fb7d8a37fe9e"
          }
        },
        {
          "client_id": "421535327263-c69n08rn83cgjg9lbbd93c0vmmbfl4rd.apps.googleusercontent.com",
          "client_type": 3
        }
      ],
      "api_key": [
        {
          "current_key": "AIzaSyAOFYyCsZ14XwV56GnfKoss8nexcBTgjsU"
        }
      ],
      "services": {
        "analytics_service": {
          "status": 1
        },
        "appinvite_service": {
          "status": 2,
          "other_platform_oauth_client": [
            {
              "client_id": "421535327263-c69n08rn83cgjg9lbbd93c0vmmbfl4rd.apps.googleusercontent.com",
              "client_type": 3
            }
          ]
        },
        "ads_service": {
          "status": 2
        }
      }
    }
  ],
  "configuration_version": "1"
}